{
    "KPlugin": {
        "Icon": "application-x-cd-image",
        "MimeTypes": [
            "application/x-cd-image"
        ],
        "Name": "Mount and unmount iso image",
        "Name[az]": "İSO faylını qoşmaq və ayırmaq",
        "Name[ca@valencia]": "Muntatge i desmuntatge d'una imatge ISO",
        "Name[ca]": "Muntatge i desmuntatge d'una imatge ISO",
        "Name[cs]": "Připojit a odpojit obraz iso",
        "Name[da]": "Montér og afmontér ISO-imagefil",
        "Name[el]": "Προσάρτηση και αποπροσάρτηση εικόνων iso",
        "Name[en_GB]": "Mount and unmount ISO image",
        "Name[es]": "Montar y desmontar imágenes ISO",
        "Name[et]": "ISO-tõmmise ühendamine ja lahutamine",
        "Name[eu]": "Muntatuta eta desmuntatu ISO irudiak",
        "Name[fi]": "Liitä ja irrota ISO-levykuva",
        "Name[fr]": "Monter et libérer une image « ISO »",
        "Name[it]": "Monta e smonta immagine iso",
        "Name[ko]": "ISO 이미지 마운트 및 마운트 해제",
        "Name[nl]": "Aan- en afkoppelen van iso-image",
        "Name[pt]": "Montar e desmontar a imagem ISO",
        "Name[pt_BR]": "Montar e desmontar imagem ISO",
        "Name[ru]": "Подключение и отключение образов ISO",
        "Name[sk]": "Pripojiť a odpojiť ISO obraz",
        "Name[sl]": "Priklopi in odklopi iso sliko sistema",
        "Name[sv]": "Montera och avmontera ISO-avbild",
        "Name[uk]": "Монтування і демонтування образів ISO",
        "Name[x-test]": "xxMount and unmount iso imagexx",
        "Name[zh_CN]": "挂载和卸载iso镜像",
        "ServiceTypes": [
            "KFileItemAction/Plugin"
        ]
    },
    "MimeType": "application/x-cd-image;"
}
